Sliced Lap 1 Week 4: Bagged tree model
…
##  Preprocessor 
## 5 Recipe Steps
## 
##  step_novel()
##  step_other()
##  step_unknown()
##  step_impute_median()
##  step_zv()
## 
##  Model 
## Bagged CART (classification with 25 members)
## 
## Variable importance scores include:
## 
## # A tibble: 23 x 4
##    term            value std.error  used
##    <chr>           <dbl>     <dbl> <int>
##  1 humidity3pm     3384.      21.1    25
##  2 location        2180.      14.9    25
##  3 wind_gust_dir   1446.      11.5    25
##  4 wind_dir9am     1410.      15.3    25
##  5 wind_dir3pm     1377.      11.4    25
##  6 max_temp        1110.      12.8    25
##  7 temp3pm         1027.      12.0    25
##  8 min_temp         976.      11.1    25
##  9 wind_gust_speed  958.      16.2    25
## 10 pressure3pm      893.      13.8    25
## #  with 13 more rows
…
